<?xml version="1.0" encoding="utf-8"?>
<!-- Generator: Adobe Illustrator 23.0.0, SVG Export Plug-In . SVG Version: 6.00 Build 0)  -->
<svg version="1.1" id="Calque_1" xmlns="http://www.w3.org/2000/svg" xmlns:xlink="http://www.w3.org/1999/xlink" x="0px" y="0px"
	 viewBox="0 0 64 64" style="enable-background:new 0 0 64 64;" xml:space="preserve">
<g>
	<path d="M32,2c16.5,0,30,13.5,30,30S48.5,62,32,62S2,48.5,2,32S15.5,2,32,2 M32,0C14.3,0,0,14.3,0,32s14.3,32,32,32s32-14.3,32-32
		S49.7,0,32,0L32,0z"/>
	<g>
		<path d="M11,30.9c0-1.6,0.3-3.1,0.9-4.5c0.6-1.4,1.4-2.6,2.4-3.7c1-1,2.3-1.9,3.7-2.5c1.4-0.6,2.9-0.9,4.5-0.9
			c1.8,0,3.5,0.4,5,1.2c1.5,0.8,2.8,1.8,3.9,3.1c0.3,0.3,0.4,0.7,0.4,1.2c0,0.7-0.3,1.3-0.8,1.7c-0.5,0.5-1.1,0.7-1.8,0.7
			c-0.6,0-1.1-0.2-1.4-0.5c-0.6-0.8-1.4-1.4-2.3-1.9c-0.9-0.5-1.9-0.7-3-0.7c-0.9,0-1.8,0.2-2.6,0.5c-0.8,0.3-1.5,0.8-2.1,1.4
			c-0.6,0.6-1.1,1.3-1.4,2.1c-0.3,0.8-0.5,1.7-0.5,2.6s0.2,1.8,0.5,2.6c0.3,0.8,0.8,1.5,1.4,2.1c0.6,0.6,1.3,1.1,2.1,1.4
			c0.8,0.3,1.7,0.5,2.6,0.5c0.9,0,1.8-0.2,2.5-0.5c0.8-0.3,1.5-0.8,2.1-1.4c0.3-0.4,0.4-0.9,0.4-1.6c-0.7,0-1.3-0.2-1.7-0.7
			c-0.5-0.5-0.7-1-0.7-1.7c0-0.6,0.2-1.2,0.7-1.7c0.5-0.5,1-0.7,1.7-0.7h2.4c0.7,0,1.3,0.2,1.7,0.7c0.5,0.5,0.7,1,0.7,1.7v2.4
			c0,1.4-0.2,2.4-0.5,3.1c-0.3,0.7-0.7,1.2-1,1.5c-1.1,1.1-2.3,2-3.7,2.6s-3,0.9-4.6,0.9c-1.6,0-3.1-0.3-4.5-0.9
			c-1.4-0.6-2.6-1.4-3.7-2.5c-1-1-1.8-2.3-2.4-3.7C11.3,33.9,11,32.4,11,30.9z"/>
		<path d="M45.9,40.8c-0.2,0.5-0.5,0.9-0.9,1.2s-0.9,0.4-1.3,0.4c-0.5,0-0.9-0.2-1.3-0.5c-0.4-0.3-0.7-0.7-0.9-1.1l-7.1-18.1
			c-0.2-0.6-0.2-1.2,0.1-1.9c0.3-0.6,0.7-1,1.3-1.3c0.6-0.2,1.2-0.2,1.9,0.1c0.6,0.3,2.6,0.4,6.1,0.4c3.4,0,5.5-0.1,6.1-0.4
			c0.6-0.3,1.2-0.3,1.9-0.1c0.6,0.3,1.1,0.7,1.3,1.3c0.3,0.6,0.3,1.2,0,1.9L45.9,40.8z"/>
	</g>
</g>
</svg>
